…
Totals for sales by hour

```r
salesbyhour <- GCarWash %>%
  group_by(hour) %>%
  summarise(across(amount, sum))
salesbyhour
```

```
## # A tibble: 240 × 2
##    hour                amount
##    <dttm>               <dbl>
##  1 2016-05-13 15:00:00    1  
##  2 2016-05-16 09:00:00   -1  
##  3 2016-05-16 12:00:00   66.0
##  4 2016-05-16 14:00:00   23.6
##  5 2016-05-16 16:00:00  127. 
##  6 2016-05-17 10:00:00    5  
##  7 2016-05-17 11:00:00   20  
##  8 2016-05-17 12:00:00   25  
##  9 2016-05-17 13:00:00   60  
## 10 2016-05-17 14:00:00  110  
## # … with 230 more rows
```
…
New hourly variable to match car wash data

```r
temps_hour <- TempsDat %>%
  with_tz(tzone = "US/Mountain") %>%
  filter(tmpf != "") %>%
  select(hour, tmpf)
temps_hour
```

```
## # A tibble: 1,419 × 2
##    hour                 tmpf
##    <dttm>              <dbl>
##  1 2016-05-12 19:00:00  68  
##  2 2016-05-12 20:00:00  66.0
##  3 2016-05-12 21:00:00  63.0
##  4 2016-05-12 22:00:00  59  
##  5 2016-05-12 23:00:00  57.9
##  6 2016-05-13 00:00:00  55.0
##  7 2016-05-13 01:00:00  55.0
##  8 2016-05-13 02:00:00  48.0
##  9 2016-05-13 03:00:00  45.0
## 10 2016-05-13 04:00:00  46.0
## # … with 1,409 more rows
```
…
