…
```r
tidy_movdat <- MovieData %>%
  select(FILM, RT_norm, Metacritic_norm, IMDB_norm, Fandango_Ratingvalue) %>%
  pivot_longer(2:5, names_to = "websites", values_to = "ratings") %>%
  select(FILM, websites, ratings)

tidy_movdat
```

```
## # A tibble: 584 × 3
##    FILM                           websites             ratings
##    <chr>                          <chr>                  <dbl>
##  1 Avengers: Age of Ultron (2015) RT_norm                 3.7 
##  2 Avengers: Age of Ultron (2015) Metacritic_norm         3.3 
##  3 Avengers: Age of Ultron (2015) IMDB_norm               3.9 
##  4 Avengers: Age of Ultron (2015) Fandango_Ratingvalue    4.5 
##  5 Cinderella (2015)              RT_norm                 4.25
##  6 Cinderella (2015)              Metacritic_norm         3.35
##  7 Cinderella (2015)              IMDB_norm               3.55
##  8 Cinderella (2015)              Fandango_Ratingvalue    4.5 
##  9 Ant-Man (2015)                 RT_norm                 4   
## 10 Ant-Man (2015)                 Metacritic_norm         3.2 
## # … with 574 more rows
```
…
