…
Friend's Picks: AMZN, META, SNAP

My Picks: XOM, CVX, AAPL


```r
(Amazon <- tq_get("AMZN", get = "stock.prices"))
```

```
## # A tibble: 2,731 × 8
##    symbol date        open  high   low close    volume adjusted
##    <chr>  <date>     <dbl> <dbl> <dbl> <dbl>     <dbl>    <dbl>
##  1 AMZN   2012-01-03  8.79  8.97  8.78  8.95 102216000     8.95
##  2 AMZN   2012-01-04  8.96  9.02  8.80  8.88  84104000     8.88
##  3 AMZN   2012-01-05  8.80  8.91  8.70  8.88  76182000     8.88
##  4 AMZN   2012-01-06  8.90  9.23  8.88  9.13 140168000     9.13
##  5 AMZN   2012-01-09  9.14  9.22  8.85  8.93 101138000     8.93
##  6 AMZN   2012-01-10  9.06  9.12  8.86  8.97  79716000     8.97
##  7 AMZN   2012-01-11  8.98  9.04  8.91  8.94  62054000     8.94
##  8 AMZN   2012-01-12  8.97  8.97  8.79  8.80 107716000     8.80
##  9 AMZN   2012-01-13  8.79  8.94  8.68  8.92  95070000     8.92
## 10 AMZN   2012-01-17  9.01  9.16  8.93  9.08 112890000     9.08
## # … with 2,721 more rows
```

```r
(META <- tq_get("META", get = "stock.prices"))
```

```
## # A tibble: 2,636 × 8
##    symbol date        open  high   low close    volume adjusted
##    <chr>  <date>     <dbl> <dbl> <dbl> <dbl>     <dbl>    <dbl>
##  1 META   2012-05-18  42.0  45    38    38.2 573576400     38.2
##  2 META   2012-05-21  36.5  36.7  33    34.0 168192700     34.0
##  3 META   2012-05-22  32.6  33.6  30.9  31   101786600     31  
##  4 META   2012-05-23  31.4  32.5  31.4  32    73600000     32  
##  5 META   2012-05-24  33.0  33.2  31.8  33.0  50237200     33.0
##  6 META   2012-05-25  32.9  33.0  31.1  31.9  37149800     31.9
##  7 META   2012-05-29  31.5  31.7  28.6  28.8  78063400     28.8
##  8 META   2012-05-30  28.7  29.5  27.9  28.2  57267900     28.2
##  9 META   2012-05-31  28.5  29.7  26.8  29.6 111639200     29.6
## 10 META   2012-06-01  28.9  29.2  27.4  27.7  41855500     27.7
## # … with 2,626 more rows
```

```r
(SNAP <- tq_get("SNAP", get = "stock.prices"))
```

```
## # A tibble: 1,433 × 8
##    symbol date        open  high   low close    volume adjusted
##    <chr>  <date>     <dbl> <dbl> <dbl> <dbl>     <dbl>    <dbl>
##  1 SNAP   2017-03-02  24    26.0  23.5  24.5 217048900     24.5
##  2 SNAP   2017-03-03  26.4  29.4  26.1  27.1 148166400     27.1
##  3 SNAP   2017-03-06  28.2  28.2  23.8  23.8  72903000     23.8
##  4 SNAP   2017-03-07  22.2  22.5  20.6  21.4  71857800     21.4
##  5 SNAP   2017-03-08  22.0  23.4  21.3  22.8  49819100     22.8
##  6 SNAP   2017-03-09  23.2  23.7  22.5  22.7  25803200     22.7
##  7 SNAP   2017-03-10  23.4  23.4  22    22.1  18337600     22.1
##  8 SNAP   2017-03-13  22.0  22.2  21.0  21.1  20605900     21.1
##  9 SNAP   2017-03-14  20.9  21.0  20.2  20.6  20033200     20.6
## 10 SNAP   2017-03-15  20.1  21.4  20.0  20.8  24985900     20.8
## # … with 1,423 more rows
```

```r
(Exxon <- tq_get("XOM", get = "stock.prices"))
```

```
## # A tibble: 2,731 × 8
##    symbol date        open  high   low close   volume adjusted
##    <chr>  <date>     <dbl> <dbl> <dbl> <dbl>    <dbl>    <dbl>
##  1 XOM    2012-01-03  86.0  86.7  85.9  86   20906800     55.4
##  2 XOM    2012-01-04  85.8  86.2  85.1  86.0 16130900     55.4
##  3 XOM    2012-01-05  85.6  85.9  84.9  85.8 17452800     55.2
##  4 XOM    2012-01-06  85.9  86    85.1  85.1 15942100     54.8
##  5 XOM    2012-01-09  85    85.6  85.0  85.5 11664200     55.0
##  6 XOM    2012-01-10  86.1  86.2  85.4  85.7 13080800     55.2
##  7 XOM    2012-01-11  85.1  85.4  84.5  85.1 14831400     54.8
##  8 XOM    2012-01-12  84.4  84.9  83.9  84.7 17357200     54.5
##  9 XOM    2012-01-13  84.2  84.9  83.8  84.9 15551600     54.6
## 10 XOM    2012-01-17  85.8  86.1  85.4  85.7 15627900     55.2
## # … with 2,721 more rows
```

```r
(Chevron <- tq_get("CVX", get = "stock.prices"))
```

```
## # A tibble: 2,731 × 8
##    symbol date        open  high   low close   volume adjusted
##    <chr>  <date>     <dbl> <dbl> <dbl> <dbl>    <dbl>    <dbl>
##  1 CVX    2012-01-03  109.  111.  109.  110. 11518700     71.2
##  2 CVX    2012-01-04  110.  110.  109.  110.  8019100     71.0
##  3 CVX    2012-01-05  109.  110.  108.  109.  7184900     70.3
##  4 CVX    2012-01-06  109.  110.  108.  108.  8214900     69.8
##  5 CVX    2012-01-09  108.  110.  108.  109.  7118800     70.6
##  6 CVX    2012-01-10  110.  111.  109.  109.  7641800     70.3
##  7 CVX    2012-01-11  109.  109.  107.  108.  7802500     69.5
##  8 CVX    2012-01-12  105.  106.  105.  105. 11897200     67.7
##  9 CVX    2012-01-13  105.  106.  104.  106.  8266900     68.4
## 10 CVX    2012-01-17  107.  108.  106.  107.  6925300     68.8
## # … with 2,721 more rows
```

```r
(Apple <- tq_get("AAPL", get = "stock.prices"))
```

```
## # A tibble: 2,731 × 8
##    symbol date        open  high   low close    volume adjusted
##    <chr>  <date>     <dbl> <dbl> <dbl> <dbl>     <dbl>    <dbl>
##  1 AAPL   2012-01-03  14.6  14.7  14.6  14.7 302220800     12.5
##  2 AAPL   2012-01-04  14.6  14.8  14.6  14.8 260022000     12.6
##  3 AAPL   2012-01-05  14.8  14.9  14.7  14.9 271269600     12.7
##  4 AAPL   2012-01-06  15.0  15.1  15.0  15.1 318292800     12.9
##  5 AAPL   2012-01-09  15.2  15.3  15.0  15.1 394024400     12.8
##  6 AAPL   2012-01-10  15.2  15.2  15.1  15.1 258196400     12.9
##  7 AAPL   2012-01-11  15.1  15.1  15.0  15.1 215084800     12.9
##  8 AAPL   2012-01-12  15.1  15.1  15.0  15.0 212587200     12.8
##  9 AAPL   2012-01-13  15.0  15.0  15.0  15.0 226021600     12.8
## 10 AAPL   2012-01-17  15.2  15.2  15.1  15.2 242897200     12.9
## # … with 2,721 more rows
```
…
