…
```r
combined1$quartile <- ntile(combined1$value, 4)
combined1
```

```
## # A tibble: 254 × 16
##    County…¹ Count…² Count…³ Longi…⁴ Latit…⁵ Geore…⁶ count…⁷   ...1 state State…⁸
##    <chr>      <dbl>   <dbl>   <dbl>   <dbl> <chr>   <chr>    <dbl> <dbl> <chr>  
##  1 Alleghe…       2       2   -80.0    40.5 POINT … Allegh… 235844    42 PA     
##  2 Alleghe…       2       2   -80.0    40.5 POINT … Allegh… 235875    42 PA     
##  3 Lancast…      36      36   -76.3    40.0 POINT … Lancas… 240458    42 PA     
##  4 Lancast…      36      36   -76.3    40.0 POINT … Lancas… 240489    42 PA     
##  5 Chester       15      15   -75.8    40.0 POINT … Chester 237703    42 PA     
##  6 Montgom…      46      46   -75.4    40.2 POINT … Montgo… 241922    42 PA     
##  7 York          67      67   -76.7    39.9 POINT … York    244544    42 PA     
##  8 Philade…      51      51   -75.1    40.0 POINT … Philad… 242632    42 PA     
##  9 Montgom…      46      46   -75.4    40.2 POINT … Montgo… 241953    42 PA     
## 10 York          67      67   -76.7    39.9 POINT … York    244575    42 PA     
## # … with 244 more rows, 6 more variables: county <dbl>, countyname <chr>,
## #   variable <chr>, year <dbl>, value <chr>, quartile <int>, and abbreviated
## #   variable names ¹​`County Name`, ²​`County Code Number`, ³​`County Code text`,
## #   ⁴​Longitude, ⁵​Latitude, ⁶​`Georeferenced Latitude & Longitude`, ⁷​countyname1,
## #   ⁸​StateAbbr
```

```r
ntile4 <- combined1 %>%
  filter(quartile == 4)
ntile4
```

```
## # A tibble: 63 × 16
##    County…¹ Count…² Count…³ Longi…⁴ Latit…⁵ Geore…⁶ count…⁷   ...1 state State…⁸
##    <chr>      <dbl>   <dbl>   <dbl>   <dbl> <chr>   <chr>    <dbl> <dbl> <chr>  
##  1 Philade…      51      51   -75.1    40.0 POINT … Philad… 242632    42 PA     
##  2 Montgom…      46      46   -75.4    40.2 POINT … Montgo… 241953    42 PA     
##  3 York          67      67   -76.7    39.9 POINT … York    244575    42 PA     
##  4 Chester       15      15   -75.8    40.0 POINT … Chester 237734    42 PA     
##  5 Cumberl…      21      21   -77.3    40.2 POINT … Cumber… 238489    42 PA     
##  6 Dauphin       22      22   -76.8    40.4 POINT … Dauphin 238671    42 PA     
##  7 Cumberl…      21      21   -77.3    40.2 POINT … Cumber… 238520    42 PA     
##  8 Dauphin       22      22   -76.8    40.4 POINT … Dauphin 238702    42 PA     
##  9 Lehigh        39      39   -75.6    40.6 POINT … Lehigh  240901    42 PA     
## 10 Hunting…      31      31   -78.0    40.4 POINT … Huntin… 239825    42 PA     
## # … with 53 more rows, 6 more variables: county <dbl>, countyname <chr>,
## #   variable <chr>, year <dbl>, value <chr>, quartile <int>, and abbreviated
## #   variable names ¹​`County Name`, ²​`County Code Number`, ³​`County Code text`,
## #   ⁴​Longitude, ⁵​Latitude, ⁶​`Georeferenced Latitude & Longitude`, ⁷​countyname1,
## #   ⁸​StateAbbr
```

```r
ntile3 <- combined1 %>%
  filter(quartile == 3)
ntile3
```

```
## # A tibble: 63 × 16
##    County…¹ Count…² Count…³ Longi…⁴ Latit…⁵ Geore…⁶ count…⁷   ...1 state State…⁸
##    <chr>      <dbl>   <dbl>   <dbl>   <dbl> <chr>   <chr>    <dbl> <dbl> <chr>  
##  1 Erie          25      25   -80.0    42.0 POINT … Erie    239131    42 PA     
##  2 Franklin      28      28   -77.7    39.9 POINT … Frankl… 239546    42 PA     
##  3 Westmor…      65      65   -79.5    40.3 POINT … Westmo… 244258    42 PA     
##  4 Philade…      51      51   -75.1    40.0 POINT … Philad… 242694    42 PA     
##  5 Butler        10      10   -79.9    40.9 POINT … Butler  237039    42 PA     
##  6 Franklin      28      28   -77.7    39.9 POINT … Frankl… 239577    42 PA     
##  7 Westmor…      65      65   -79.5    40.3 POINT … Westmo… 244289    42 PA     
##  8 Lehigh        39      39   -75.6    40.6 POINT … Lehigh  240932    42 PA     
##  9 Northam…      48      48   -75.3    40.8 POINT … Northa… 242214    42 PA     
## 10 Bucks          9       9   -75.1    40.3 POINT … Bucks   236866    42 PA     
## # … with 53 more rows, 6 more variables: county <dbl>, countyname <chr>,
## #   variable <chr>, year <dbl>, value <chr>, quartile <int>, and abbreviated
## #   variable names ¹​`County Name`, ²​`County Code Number`, ³​`County Code text`,
## #   ⁴​Longitude, ⁵​Latitude, ⁶​`Georeferenced Latitude & Longitude`, ⁷​countyname1,
## #   ⁸​StateAbbr
```

```r
ntile2 <- combined1 %>%
  filter(quartile == 2)
ntile2
```

```
## # A tibble: 63 × 16
##    County…¹ Count…² Count…³ Longi…⁴ Latit…⁵ Geore…⁶ count…⁷   ...1 state State…⁸
##    <chr>      <dbl>   <dbl>   <dbl>   <dbl> <chr>   <chr>    <dbl> <dbl> <chr>  
##  1 Adams          1       1   -77.2    39.9 POINT … Adams   235713    42 PA     
##  2 Beaver         4       4   -80.4    40.7 POINT … Beaver  236164    42 PA     
##  3 Adams          1       1   -77.2    39.9 POINT … Adams   235744    42 PA     
##  4 Chester       15      15   -75.8    40.0 POINT … Chester 237765    42 PA     
##  5 Lackawa…      35      35   -75.6    41.4 POINT … Lackaw… 240285    42 PA     
##  6 Monroe        45      45   -75.3    41.1 POINT … Monroe  241750    42 PA     
##  7 Lackawa…      35      35   -75.6    41.4 POINT … Lackaw… 240316    42 PA     
##  8 Chester       15      15   -75.8    40.0 POINT … Chester 237852    42 PA     
##  9 Fayette       26      26   -79.7    39.9 POINT … Fayette 239315    42 PA     
## 10 Lebanon       38      38   -76.5    40.4 POINT … Lebanon 240778    42 PA     
## # … with 53 more rows, 6 more variables: county <dbl>, countyname <chr>,
## #   variable <chr>, year <dbl>, value <chr>, quartile <int>, and abbreviated
## #   variable names ¹​`County Name`, ²​`County Code Number`, ³​`County Code text`,
## #   ⁴​Longitude, ⁵​Latitude, ⁶​`Georeferenced Latitude & Longitude`, ⁷​countyname1,
## #   ⁸​StateAbbr
```

```r
ntile1 <- combined1 %>%
  filter(quartile == 1)
ntile1
```

```
## # A tibble: 63 × 16
##    County…¹ Count…² Count…³ Longi…⁴ Latit…⁵ Geore…⁶ count…⁷   ...1 state State…⁸
##    <chr>      <dbl>   <dbl>   <dbl>   <dbl> <chr>   <chr>    <dbl> <dbl> <chr>  
##  1 Alleghe…       2       2   -80.0    40.5 POINT … Allegh… 235844    42 PA     
##  2 Alleghe…       2       2   -80.0    40.5 POINT … Allegh… 235875    42 PA     
##  3 Lancast…      36      36   -76.3    40.0 POINT … Lancas… 240458    42 PA     
##  4 Lancast…      36      36   -76.3    40.0 POINT … Lancas… 240489    42 PA     
##  5 Chester       15      15   -75.8    40.0 POINT … Chester 237703    42 PA     
##  6 Montgom…      46      46   -75.4    40.2 POINT … Montgo… 241922    42 PA     
##  7 York          67      67   -76.7    39.9 POINT … York    244544    42 PA     
##  8 Wayne         64      64   -75.3    41.6 POINT … Wayne   244147    42 PA     
##  9 Wayne         64      64   -75.3    41.6 POINT … Wayne   244178    42 PA     
## 10 Cumberl…      21      21   -77.3    40.2 POINT … Cumber… 238642    42 PA     
## # … with 53 more rows, 6 more variables: county <dbl>, countyname <chr>,
## #   variable <chr>, year <dbl>, value <chr>, quartile <int>, and abbreviated
## #   variable names ¹​`County Name`, ²​`County Code Number`, ³​`County Code text`,
## #   ⁴​Longitude, ⁵​Latitude, ⁶​`Georeferenced Latitude & Longitude`, ⁷​countyname1,
## #   ⁸​StateAbbr
```
…
