…
```r
SoloData
```

```
## # A tibble: 139 × 5
##    name              band                followers band_followers follower_dif…¹
##    <chr>             <chr>               <chr>     <chr>          <chr>         
##  1 Daron Jones       112                 1.28k     783k           −782k         
##  2 Slim              112                 2.14k     783k           −781k         
##  3 Q Parker          112                 3.51k     783k           −780k         
##  4 JC Chasez         *NSYNC              30.8k     1.44M          −1.41M        
##  5 Joey Fatone       *NSYNC              1.13k     1.44M          −1.44M        
##  6 Justin Timberlake *NSYNC              10.3M     1.44M          8.90M         
##  7 Ashton Irwin      5 Seconds of Summer 130k      7.14M          −7.01M        
##  8 Abz Love          5ive                223       19.0k          −18.7k        
##  9 Jeff Timmons      98º                 111       302k           −302k         
## 10 Nick Lachey       98º                 142k      302k           −160k         
## # … with 129 more rows, and abbreviated variable name ¹​follower_difference
```
…
```r
BillboardData
```

```
## # A tibble: 456 × 5
##    name   band  title                     peak_date  peak_rank
##    <chr>  <chr> <chr>                     <date>         <dbl>
##  1 *NSYNC <NA>  It's Gonna Be Me          2000-07-28         1
##  2 *NSYNC <NA>  Music Of My Heart         1999-10-15         2
##  3 *NSYNC <NA>  Bye Bye Bye               2000-04-14         4
##  4 *NSYNC <NA>  This I Promise You        2000-12-01         5
##  5 *NSYNC <NA>  Girlfriend                2002-04-05         5
##  6 *NSYNC <NA>  A Little More Time On You 1999-02-26         8
##  7 *NSYNC <NA>  Gone                      2001-11-23        11
##  8 *NSYNC <NA>  I Want You Back           1998-05-01        13
##  9 *NSYNC <NA>  Pop                       2001-06-15        19
## 10 *NSYNC <NA>  Tearin' Up My Heart       1998-12-04        59
## # … with 446 more rows
```
…
Data imported correctly as characters.


```r
sixtop100hits <- BillboardData %>%
  group_by(name) %>%
  filter(n() > 6, band != "")
sixtop100hits
```

```
## # A tibble: 144 × 5
## # Groups:   name [10]
##    name              band   title                           peak_date  peak_rank
##    <chr>             <chr>  <chr>                           <date>         <dbl>
##  1 Justin Timberlake *NSYNC SexyBack                        2006-09-08         1
##  2 Justin Timberlake *NSYNC My Love                         2006-11-10         1
##  3 Justin Timberlake *NSYNC What Goes Around...Comes Around 2007-03-02         1
##  4 Justin Timberlake *NSYNC Can't Stop The Feeling!         2016-05-27         1
##  5 Justin Timberlake *NSYNC Mirrors                         2013-06-14         2
##  6 Justin Timberlake *NSYNC Cry Me A River                  2003-01-31         3
##  7 Justin Timberlake *NSYNC Suit & Tie                      2013-04-05         3
##  8 Justin Timberlake *NSYNC Rock Your Body                  2003-05-09         5
##  9 Justin Timberlake *NSYNC Summer Love                     2007-06-08         6
## 10 Justin Timberlake *NSYNC Not A Bad Thing                 2014-05-02         8
## # … with 134 more rows
```

Singers without 6 top 100 hits removed.


```r
sixtop100_bands <- BillboardData %>%
  group_by(name) %>%
  filter(name %in% sixtop100hits$band)
sixtop100_bands
```

```
## # A tibble: 101 × 5
## # Groups:   name [8]
##    name   band  title                     peak_date  peak_rank
##    <chr>  <chr> <chr>                     <date>         <dbl>
##  1 *NSYNC <NA>  It's Gonna Be Me          2000-07-28         1
##  2 *NSYNC <NA>  Music Of My Heart         1999-10-15         2
##  3 *NSYNC <NA>  Bye Bye Bye               2000-04-14         4
##  4 *NSYNC <NA>  This I Promise You        2000-12-01         5
##  5 *NSYNC <NA>  Girlfriend                2002-04-05         5
##  6 *NSYNC <NA>  A Little More Time On You 1999-02-26         8
##  7 *NSYNC <NA>  Gone                      2001-11-23        11
##  8 *NSYNC <NA>  I Want You Back           1998-05-01        13
##  9 *NSYNC <NA>  Pop                       2001-06-15        19
## 10 *NSYNC <NA>  Tearin' Up My Heart       1998-12-04        59
## # … with 91 more rows
```
…
